<?xml version="1.0" standalone="no"?>
<!DOCTYPE svg PUBLIC "-//W3C//DTD SVG 1.1//EN" "http://www.w3.org/Graphics/SVG/1.1/DTD/svg11.dtd">
<svg xmlns="http://www.w3.org/2000/svg">
<metadata>Copyright (C) 2017 by original authors @ fontello.com</metadata>
<defs>
<font id="fontello" horiz-adv-x="1000" >
<font-face font-family="fontello" font-weight="400" font-stretch="normal" units-per-em="1000" ascent="850" descent="-150" />
<missing-glyph horiz-adv-x="1000" />
<glyph glyph-name="quote" unicode="&#xe800;" d="M146 680q146 0 184-146 38-140-40-302-80-168-224-204-32-8-66-8l0 70q112 0 182 108 54 86 26 146-16 36-62 36-60 0-103 44t-43 106 43 106 103 44z m420 0q146 0 184-146 38-140-40-302-80-168-224-204-32-8-66-8l0 70q112 0 182 108 54 86 26 146-16 36-62 36-60 0-103 44t-43 106 43 106 103 44z" horiz-adv-x="762" />

<glyph glyph-name="flag" unicode="&#xe801;" d="M874 616q14 6 22-1t0-19q-96-138-164-213t-110-90-73-2-60 37-63 40-93-4-139-86l90-352-100 0-184 720 92 34q90 66 152 86t98 3 64-51 62-71 79-62 129-20 198 51z" horiz-adv-x="900" />

<glyph glyph-name="link" unicode="&#xe802;" d="M294 116q14 14 34 14t36-14q32-34 0-70l-42-40q-56-56-132-56-78 0-134 56t-56 132q0 78 56 134l148 148q70 68 144 77t128-43q16-16 16-36t-16-36q-36-32-70 0-50 48-132-34l-148-146q-26-26-26-64t26-62q26-26 63-26t63 26z m450 574q56-56 56-132 0-78-56-134l-158-158q-74-72-150-72-62 0-112 50-14 14-14 34t14 36q14 14 35 14t35-14q50-48 122 24l158 156q28 28 28 64 0 38-28 62-24 26-56 31t-60-21l-50-50q-16-14-36-14t-34 14q-34 34 0 70l50 50q54 54 127 51t129-61z" horiz-adv-x="800" />

<glyph glyph-name="asterisk" unicode="&#xe803;" d="M0 395l57 176 351-116 0 370 184 0 0-370 351 116 57-176-352-113 217-299-148-108-217 299-217-299-148 108 217 299z" horiz-adv-x="1000" />

<glyph glyph-name="chat" unicode="&#xe804;" d="M290 240l350 0q2 0 6 2l4 0 0-92q0-40-29-70t-71-30l-250 0-150-150 0 150-50 0q-40 0-70 30t-30 70l0 300q0 42 30 71t70 29l190 0 0-310z m610 560q42 0 71-29t29-71l0-300q0-40-29-70t-71-30l-50 0 0-150-150 150-350 0 0 400q0 42 30 71t70 29l450 0z" horiz-adv-x="1000" />

<glyph glyph-name="download" unicode="&#xe805;" d="M714 100q0 15-10 25t-25 11-25-11-11-25 11-25 25-11 25 11 10 25z m143 0q0 15-10 25t-26 11-25-11-10-25 10-25 25-11 26 11 10 25z m72 125v-179q0-22-16-37t-38-16h-821q-23 0-38 16t-16 37v179q0 22 16 38t38 16h259l75-76q33-32 76-32t76 32l76 76h259q22 0 38-16t16-38z m-182 318q10-23-8-39l-250-250q-10-11-25-11t-25 11l-250 250q-17 16-8 39 10 21 33 21h143v250q0 15 11 25t25 11h143q14 0 25-11t10-25v-250h143q24 0 33-21z" horiz-adv-x="928.6" />

<glyph glyph-name="css" unicode="&#xe806;" d="M0 57l0 774 1000 0 0-774-500-187z m109 336q0-57 35-94t96-37q119 0 121 108l-76 0q0-45-47-47-23 0-35 16t-12 42q0 49 12 67 20 25 55 11 25-9 25-44l78 0q0 52-33 80t-88 29q-56 0-94-35t-37-96z m284-41q0-88 125-90 109 0 111 88-2 57-76 72-2 0-17 3t-25 5-21 8-10 14q0 15 34 17 31 0 33-25l0-2 74 0 0 4q0 39-33 58t-78 20q-110 0-113-80 0-59 74-76 4-2 18-5t26-5 20-8 10-14q0-15-35-15-41 0-41 31l-76 0z m265 0q0-88 125-90 110 0 112 88 0 18-8 29-16 30-69 43-2 0-17 3t-26 5-19 8-12 14q2 15 35 17 33 0 32-27l76 0q0 41-33 61t-79 21q-109 0-113-80 0-59 74-76 4-2 19-5l24-5t21-8 11-14q0-19-53-15-24 6-24 31l-76 0z" horiz-adv-x="1000" />

<glyph glyph-name="python" unicode="&#xe807;" d="M652 850c-55 0-107-5-152-13-135-24-159-73-159-165v-122h318v-40h-318-120c-92 0-173-55-199-161-29-121-30-197 0-323 23-95 77-162 169-162h110v146c0 105 91 197 199 197h317c89 0 159 73 159 162v303c0 86-72 151-159 165-54 9-111 13-165 13z m-172-97c32 0 59-28 59-61 0-34-27-61-59-61-33 0-60 27-60 61 0 33 27 61 60 61z m536-243v-141c0-110-93-202-199-202h-317c-87 0-159-74-159-161v-303c0-87 74-137 159-162 100-30 197-35 317 0 80 23 159 70 159 162v121h-317v40h317 159c93 0 127 65 159 162 34 99 32 195 0 323-22 92-66 161-159 161z m-179-767c33 0 60-27 60-61 0-33-27-60-60-60-33 0-59 27-59 60 0 34 26 61 59 61z" horiz-adv-x="989" />

<glyph glyph-name="link-ext" unicode="&#xf08e;" d="M786 332v-178q0-67-47-114t-114-47h-464q-67 0-114 47t-47 114v464q0 66 47 113t114 48h393q7 0 12-5t5-13v-36q0-8-5-13t-12-5h-393q-37 0-63-26t-27-63v-464q0-37 27-63t63-27h464q37 0 63 27t26 63v178q0 8 5 13t13 5h36q8 0 13-5t5-13z m214 482v-285q0-15-11-25t-25-11-25 11l-98 98-364-364q-5-6-13-6t-12 6l-64 64q-6 5-6 12t6 13l364 364-98 98q-11 11-11 25t11 25 25 11h285q15 0 25-11t11-25z" horiz-adv-x="1000" />

<glyph glyph-name="mail" unicode="&#xf0e0;" d="M1000 454v-443q0-37-26-63t-63-27h-822q-36 0-63 27t-26 63v443q25-27 56-49 202-137 278-192 32-24 51-37t53-27 61-13h2q28 0 61 13t53 27 51 37q95 68 278 192 32 22 56 49z m0 164q0-44-27-84t-68-69q-210-146-262-181-5-4-23-17t-30-22-29-18-32-15-28-5h-2q-12 0-27 5t-32 15-30 18-30 22-23 17q-51 35-147 101t-114 80q-35 23-65 64t-31 77q0 43 23 72t66 29h822q36 0 63-26t26-63z" horiz-adv-x="1000" />

<glyph glyph-name="bullet" unicode="&#xf111;" d="M857 350q0-117-57-215t-156-156-215-58-216 58-155 156-58 215 58 215 155 156 216 58 215-58 156-156 57-215z" horiz-adv-x="857.1" />

<glyph glyph-name="code" unicode="&#xf121;" d="M344 69l-28-28q-5-5-12-5t-13 5l-260 261q-6 5-6 12t6 13l260 260q5 6 13 6t12-6l28-28q6-5 6-13t-6-12l-219-220 219-219q6-6 6-13t-6-13z m330 596l-208-721q-2-7-9-11t-13-1l-34 9q-8 3-11 9t-2 14l209 720q2 8 8 11t13 2l35-10q7-2 11-9t1-13z m367-363l-260-261q-6-5-13-5t-13 5l-28 28q-5 6-5 13t5 13l219 219-219 220q-5 5-5 12t5 13l28 28q6 6 13 6t13-6l260-260q5-5 5-13t-5-12z" horiz-adv-x="1071.4" />

<glyph glyph-name="html5" unicode="&#xf13b;" d="M631 517l9 98h-494l26-298h342l-12-128-110-29-110 29-7 78h-97l12-155 202-55h2v0l200 55 28 304h-359l-8 101h376z m-631 262h786l-72-803-322-90-321 90z" horiz-adv-x="785.7" />
</font>
</defs>
</svg>